{
  "runtimeTarget": {
    "name": ".NETCoreApp,Version=v8.0",
    "signature": ""
  },
  "compilationOptions": {},
  "targets": {
    ".NETCoreApp,Version=v8.0": {
      "Shankro/1.0.0": {
        "dependencies": {
          "AutoMapper": "13.0.1",
          "Microsoft.Extensions.Hosting": "8.0.1",
          "Newtonsoft.Json": "13.0.3",
          "POSBackend.DAL": "1.0.0",
          "POSBackend.Model": "1.0.0",
          "RestSharp": "112.1.0"
        },
        "runtime": {
          "Shankro.dll": {}
        }
      },
      "AutoMapper/13.0.1": {
        "dependencies": {
          "Microsoft.Extensions.Options": "8.0.2"
        },
        "runtime": {
          "lib/net6.0/AutoMapper.dll": {
            "assemblyVersion": "13.0.0.0",
            "fileVersion": "13.0.1.0"
          }
        }
      },
      "Azure.Core/1.38.0": {
        "dependencies": {
          "Microsoft.Bcl.AsyncInterfaces": "1.1.1",
          "System.ClientModel": "1.0.0",
          "System.Diagnostics.DiagnosticSource": "6.0.1",
          "System.Memory.Data": "1.0.2",
          "System.Numerics.Vectors": "4.5.0",
          "System.Text.Encodings.Web": "6.0.0",
          "System.Text.Json": "4.7.2",
          "System.Threading.Tasks.Extensions": "4.5.4"
        },
        "runtime": {
          "lib/net6.0/Azure.Core.dll": {
            "assemblyVersion": "1.38.0.0",
            "fileVersion": "1.3800.24.12602"
          }
        }
      },
      "Azure.Identity/1.11.4": {
        "dependencies": {
          "Azure.Core": "1.38.0",
          "Microsoft.Identity.Client": "4.61.3",
          "Microsoft.Identity.Client.Extensions.Msal": "4.61.3",
          "System.Memory": "4.5.4",
          "System.Security.Cryptography.ProtectedData": "6.0.0",
          "System.Text.Json": "4.7.2",
          "System.Threading.Tasks.Extensions": "4.5.4"
        },
        "runtime": {
          "lib/netstandard2.0/Azure.Identity.dll": {
            "assemblyVersion": "1.11.4.0",
            "fileVersion": "1.1100.424.31005"
          }
        }
      },
      "Microsoft.Bcl.AsyncInterfaces/1.1.1": {
        "runtime": {
          "lib/netstandard2.1/Microsoft.Bcl.AsyncInterfaces.dll": {
            "assemblyVersion": "1.0.0.0",
            "fileVersion": "4.700.20.21406"
          }
        }
      },
      "Microsoft.CSharp/4.5.0": {},
      "Microsoft.Data.SqlClient/5.1.6": {
        "dependencies": {
          "Azure.Identity": "1.11.4",
          "Microsoft.Data.SqlClient.SNI.runtime": "5.1.1",
          "Microsoft.Identity.Client": "4.61.3",
          "Microsoft.IdentityModel.JsonWebTokens": "6.35.0",
          "Microsoft.IdentityModel.Protocols.OpenIdConnect": "6.35.0",
          "Microsoft.SqlServer.Server": "1.0.0",
          "System.Configuration.ConfigurationManager": "6.0.1",
          "System.Diagnostics.DiagnosticSource": "6.0.1",
          "System.Runtime.Caching": "6.0.0",
          "System.Security.Cryptography.Cng": "5.0.0",
          "System.Security.Principal.Windows": "5.0.0",
          "System.Text.Encoding.CodePages": "6.0.0",
          "System.Text.Encodings.Web": "6.0.0"
        },
        "runtime": {
          "lib/net6.0/Microsoft.Data.SqlClient.dll": {
            "assemblyVersion": "5.0.0.0",
            "fileVersion": "5.16.24240.5"
          }
        },
        "runtimeTargets": {
          "runtimes/unix/lib/net6.0/Microsoft.Data.SqlClient.dll": {
            "rid": "unix",
            "assetType": "runtime",
            "assemblyVersion": "5.0.0.0",
            "fileVersion": "5.16.24240.5"
          },
          "runtimes/win/lib/net6.0/Microsoft.Data.SqlClient.dll": {
            "rid": "win",
            "assetType": "runtime",
            "assemblyVersion": "5.0.0.0",
            "fileVersion": "5.16.24240.5"
          }
        }
      },
      "Microsoft.Data.SqlClient.SNI.runtime/5.1.1": {
        "runtimeTargets": {
          "runtimes/win-arm/native/Microsoft.Data.SqlClient.SNI.dll": {
            "rid": "win-arm",
            "assetType": "native",
            "fileVersion": "5.1.1.0"
          },
          "runtimes/win-arm64/native/Microsoft.Data.SqlClient.SNI.dll": {
            "rid": "win-arm64",
            "assetType": "native",
            "fileVersion": "5.1.1.0"
          },
          "runtimes/win-x64/native/Microsoft.Data.SqlClient.SNI.dll": {
            "rid": "win-x64",
            "assetType": "native",
            "fileVersion": "5.1.1.0"
          },
          "runtimes/win-x86/native/Microsoft.Data.SqlClient.SNI.dll": {
            "rid": "win-x86",
            "assetType": "native",
            "fileVersion": "5.1.1.0"
          }
        }
      },
      "Microsoft.EntityFrameworkCore/8.0.11": {
        "dependencies": {
          "Microsoft.EntityFrameworkCore.Abstractions": "8.0.11",
          "Microsoft.EntityFrameworkCore.Analyzers": "8.0.11",
          "Microsoft.Extensions.Caching.Memory": "8.0.1",
          "Microsoft.Extensions.Logging": "8.0.1"
        },
        "runtime": {
          "lib/net8.0/Microsoft.EntityFrameworkCore.dll": {
            "assemblyVersion": "8.0.11.0",
            "fileVersion": "8.0.1124.52104"
          }
        }
      },
      "Microsoft.EntityFrameworkCore.Abstractions/8.0.11": {
        "runtime": {
          "lib/net8.0/Microsoft.EntityFrameworkCore.Abstractions.dll": {
            "assemblyVersion": "8.0.11.0",
            "fileVersion": "8.0.1124.52104"
          }
        }
      },
      "Microsoft.EntityFrameworkCore.Analyzers/8.0.11": {},
      "Microsoft.EntityFrameworkCore.Relational/8.0.11": {
        "dependencies": {
          "Microsoft.EntityFrameworkCore": "8.0.11",
          "Microsoft.Extensions.Configuration.Abstractions": "8.0.0"
        },
        "runtime": {
          "lib/net8.0/Microsoft.EntityFrameworkCore.Relational.dll": {
            "assemblyVersion": "8.0.11.0",
            "fileVersion": "8.0.1124.52104"
          }
        }
      },
      "Microsoft.EntityFrameworkCore.SqlServer/8.0.11": {
        "dependencies": {
          "Microsoft.Data.SqlClient": "5.1.6",
          "Microsoft.EntityFrameworkCore.Relational": "8.0.11",
          "System.Formats.Asn1": "8.0.1"
        },
        "runtime": {
          "lib/net8.0/Microsoft.EntityFrameworkCore.SqlServer.dll": {
            "assemblyVersion": "8.0.11.0",
            "fileVersion": "8.0.1124.52104"
          }
        }
      },
      "Microsoft.Extensions.Caching.Abstractions/8.0.0": {
        "dependencies": {
          "Microsoft.Extensions.Primitives": "8.0.0"
        },
        "runtime": {
          "lib/net8.0/Microsoft.Extensions.Caching.Abstractions.dll": {
            "assemblyVersion": "8.0.0.0",
            "fileVersion": "8.0.23.53103"
          }
        }
      },
      "Microsoft.Extensions.Caching.Memory/8.0.1": {
        "dependencies": {
          "Microsoft.Extensions.Caching.Abstractions": "8.0.0",
          "Microsoft.Extensions.DependencyInjection.Abstractions": "8.0.2",
          "Microsoft.Extensions.Logging.Abstractions": "8.0.2",
          "Microsoft.Extensions.Options": "8.0.2",
          "Microsoft.Extensions.Primitives": "8.0.0"
        },
        "runtime": {
          "lib/net8.0/Microsoft.Extensions.Caching.Memory.dll": {
            "assemblyVersion": "8.0.0.0",
            "fileVersion": "8.0.1024.46610"
          }
        }
      },
      "Microsoft.Extensions.Configuration/8.0.0": {
        "dependencies": {
          "Microsoft.Extensions.Configuration.Abstractions": "8.0.0",
          "Microsoft.Extensions.Primitives": "8.0.0"
        },
        "runtime": {
          "lib/net8.0/Microsoft.Extensions.Configuration.dll": {
            "assemblyVersion": "8.0.0.0",
            "fileVersion": "8.0.23.53103"
          }
        }
      },
      "Microsoft.Extensions.Configuration.Abstractions/8.0.0": {
        "dependencies": {
          "Microsoft.Extensions.Primitives": "8.0.0"
        },
        "runtime": {
          "lib/net8.0/Microsoft.Extensions.Configuration.Abstractions.dll": {
            "assemblyVersion": "8.0.0.0",
            "fileVersion": "8.0.23.53103"
          }
        }
      },
      "Microsoft.Extensions.Configuration.Binder/8.0.2": {
        "dependencies": {
          "Microsoft.Extensions.Configuration.Abstractions": "8.0.0"
        },
        "runtime": {
          "lib/net8.0/Microsoft.Extensions.Configuration.Binder.dll": {
            "assemblyVersion": "8.0.0.0",
            "fileVersion": "8.0.724.31311"
          }
        }
      },
      "Microsoft.Extensions.Configuration.CommandLine/8.0.0": {
        "dependencies": {
          "Microsoft.Extensions.Configuration": "8.0.0",
          "Microsoft.Extensions.Configuration.Abstractions": "8.0.0"
        },
        "runtime": {
          "lib/net8.0/Microsoft.Extensions.Configuration.CommandLine.dll": {
            "assemblyVersion": "8.0.0.0",
            "fileVersion": "8.0.23.53103"
          }
        }
      },
      "Microsoft.Extensions.Configuration.EnvironmentVariables/8.0.0": {
        "dependencies": {
          "Microsoft.Extensions.Configuration": "8.0.0",
          "Microsoft.Extensions.Configuration.Abstractions": "8.0.0"
        },
        "runtime": {
          "lib/net8.0/Microsoft.Extensions.Configuration.EnvironmentVariables.dll": {
            "assemblyVersion": "8.0.0.0",
            "fileVersion": "8.0.23.53103"
          }
        }
      },
      "Microsoft.Extensions.Configuration.FileExtensions/8.0.1": {
        "dependencies": {
          "Microsoft.Extensions.Configuration": "8.0.0",
          "Microsoft.Extensions.Configuration.Abstractions": "8.0.0",
          "Microsoft.Extensions.FileProviders.Abstractions": "8.0.0",
          "Microsoft.Extensions.FileProviders.Physical": "8.0.0",
          "Microsoft.Extensions.Primitives": "8.0.0"
        },
        "runtime": {
          "lib/net8.0/Microsoft.Extensions.Configuration.FileExtensions.dll": {
            "assemblyVersion": "8.0.0.0",
            "fileVersion": "8.0.724.31311"
          }
        }
      },
      "Microsoft.Extensions.Configuration.Json/8.0.1": {
        "dependencies": {
          "Microsoft.Extensions.Configuration": "8.0.0",
          "Microsoft.Extensions.Configuration.Abstractions": "8.0.0",
          "Microsoft.Extensions.Configuration.FileExtensions": "8.0.1",
          "Microsoft.Extensions.FileProviders.Abstractions": "8.0.0"
        },
        "runtime": {
          "lib/net8.0/Microsoft.Extensions.Configuration.Json.dll": {
            "assemblyVersion": "8.0.0.0",
            "fileVersion": "8.0.1024.46610"
          }
        }
      },
      "Microsoft.Extensions.Configuration.UserSecrets/8.0.1": {
        "dependencies": {
          "Microsoft.Extensions.Configuration.Abstractions": "8.0.0",
          "Microsoft.Extensions.Configuration.Json": "8.0.1",
          "Microsoft.Extensions.FileProviders.Abstractions": "8.0.0",
          "Microsoft.Extensions.FileProviders.Physical": "8.0.0"
        },
        "runtime": {
          "lib/net8.0/Microsoft.Extensions.Configuration.UserSecrets.dll": {
            "assemblyVersion": "8.0.0.0",
            "fileVersion": "8.0.1024.46610"
          }
        }
      },
      "Microsoft.Extensions.DependencyInjection/8.0.1": {
        "dependencies": {
          "Microsoft.Extensions.DependencyInjection.Abstractions": "8.0.2"
        },
        "runtime": {
          "lib/net8.0/Microsoft.Extensions.DependencyInjection.dll": {
            "assemblyVersion": "8.0.0.0",
            "fileVersion": "8.0.1024.46610"
          }
        }
      },
      "Microsoft.Extensions.DependencyInjection.Abstractions/8.0.2": {
        "runtime": {
          "lib/net8.0/Microsoft.Extensions.DependencyInjection.Abstractions.dll": {
            "assemblyVersion": "8.0.0.0",
            "fileVersion": "8.0.1024.46610"
          }
        }
      },
      "Microsoft.Extensions.Diagnostics/8.0.1": {
        "dependencies": {
          "Microsoft.Extensions.Configuration": "8.0.0",
          "Microsoft.Extensions.Diagnostics.Abstractions": "8.0.1",
          "Microsoft.Extensions.Options.ConfigurationExtensions": "8.0.0"
        },
        "runtime": {
          "lib/net8.0/Microsoft.Extensions.Diagnostics.dll": {
            "assemblyVersion": "8.0.0.0",
            "fileVersion": "8.0.1024.46610"
          }
        }
      },
      "Microsoft.Extensions.Diagnostics.Abstractions/8.0.1": {
        "dependencies": {
          "Microsoft.Extensions.DependencyInjection.Abstractions": "8.0.2",
          "Microsoft.Extensions.Options": "8.0.2"
        },
        "runtime": {
          "lib/net8.0/Microsoft.Extensions.Diagnostics.Abstractions.dll": {
            "assemblyVersion": "8.0.0.0",
            "fileVersion": "8.0.1024.46610"
          }
        }
      },
      "Microsoft.Extensions.FileProviders.Abstractions/8.0.0": {
        "dependencies": {
          "Microsoft.Extensions.Primitives": "8.0.0"
        },
        "runtime": {
          "lib/net8.0/Microsoft.Extensions.FileProviders.Abstractions.dll": {
            "assemblyVersion": "8.0.0.0",
            "fileVersion": "8.0.23.53103"
          }
        }
      },
      "Microsoft.Extensions.FileProviders.Physical/8.0.0": {
        "dependencies": {
          "Microsoft.Extensions.FileProviders.Abstractions": "8.0.0",
          "Microsoft.Extensions.FileSystemGlobbing": "8.0.0",
          "Microsoft.Extensions.Primitives": "8.0.0"
        },
        "runtime": {
          "lib/net8.0/Microsoft.Extensions.FileProviders.Physical.dll": {
            "assemblyVersion": "8.0.0.0",
            "fileVersion": "8.0.23.53103"
          }
        }
      },
      "Microsoft.Extensions.FileSystemGlobbing/8.0.0": {
        "runtime": {
          "lib/net8.0/Microsoft.Extensions.FileSystemGlobbing.dll": {
            "assemblyVersion": "8.0.0.0",
            "fileVersion": "8.0.23.53103"
          }
        }
      },
      "Microsoft.Extensions.Hosting/8.0.1": {
        "dependencies": {
          "Microsoft.Extensions.Configuration": "8.0.0",
          "Microsoft.Extensions.Configuration.Abstractions": "8.0.0",
          "Microsoft.Extensions.Configuration.Binder": "8.0.2",
          "Microsoft.Extensions.Configuration.CommandLine": "8.0.0",
          "Microsoft.Extensions.Configuration.EnvironmentVariables": "8.0.0",
          "Microsoft.Extensions.Configuration.FileExtensions": "8.0.1",
          "Microsoft.Extensions.Configuration.Json": "8.0.1",
          "Microsoft.Extensions.Configuration.UserSecrets": "8.0.1",
          "Microsoft.Extensions.DependencyInjection": "8.0.1",
          "Microsoft.Extensions.DependencyInjection.Abstractions": "8.0.2",
          "Microsoft.Extensions.Diagnostics": "8.0.1",
          "Microsoft.Extensions.FileProviders.Abstractions": "8.0.0",
          "Microsoft.Extensions.FileProviders.Physical": "8.0.0",
          "Microsoft.Extensions.Hosting.Abstractions": "8.0.1",
          "Microsoft.Extensions.Logging": "8.0.1",
          "Microsoft.Extensions.Logging.Abstractions": "8.0.2",
          "Microsoft.Extensions.Logging.Configuration": "8.0.1",
          "Microsoft.Extensions.Logging.Console": "8.0.1",
          "Microsoft.Extensions.Logging.Debug": "8.0.1",
          "Microsoft.Extensions.Logging.EventLog": "8.0.1",
          "Microsoft.Extensions.Logging.EventSource": "8.0.1",
          "Microsoft.Extensions.Options": "8.0.2"
        },
        "runtime": {
          "lib/net8.0/Microsoft.Extensions.Hosting.dll": {
            "assemblyVersion": "8.0.0.0",
            "fileVersion": "8.0.1024.46610"
          }
        }
      },
      "Microsoft.Extensions.Hosting.Abstractions/8.0.1": {
        "dependencies": {
          "Microsoft.Extensions.Configuration.Abstractions": "8.0.0",
          "Microsoft.Extensions.DependencyInjection.Abstractions": "8.0.2",
          "Microsoft.Extensions.Diagnostics.Abstractions": "8.0.1",
          "Microsoft.Extensions.FileProviders.Abstractions": "8.0.0",
          "Microsoft.Extensions.Logging.Abstractions": "8.0.2"
        },
        "runtime": {
          "lib/net8.0/Microsoft.Extensions.Hosting.Abstractions.dll": {
            "assemblyVersion": "8.0.0.0",
            "fileVersion": "8.0.1024.46610"
          }
        }
      },
      "Microsoft.Extensions.Logging/8.0.1": {
        "dependencies": {
          "Microsoft.Extensions.DependencyInjection": "8.0.1",
          "Microsoft.Extensions.Logging.Abstractions": "8.0.2",
          "Microsoft.Extensions.Options": "8.0.2"
        },
        "runtime": {
          "lib/net8.0/Microsoft.Extensions.Logging.dll": {
            "assemblyVersion": "8.0.0.0",
            "fileVersion": "8.0.1024.46610"
          }
        }
      },
      "Microsoft.Extensions.Logging.Abstractions/8.0.2": {
        "dependencies": {
          "Microsoft.Extensions.DependencyInjection.Abstractions": "8.0.2"
        },
        "runtime": {
          "lib/net8.0/Microsoft.Extensions.Logging.Abstractions.dll": {
            "assemblyVersion": "8.0.0.0",
            "fileVersion": "8.0.1024.46610"
          }
        }
      },
      "Microsoft.Extensions.Logging.Configuration/8.0.1": {
        "dependencies": {
          "Microsoft.Extensions.Configuration": "8.0.0",
          "Microsoft.Extensions.Configuration.Abstractions": "8.0.0",
          "Microsoft.Extensions.Configuration.Binder": "8.0.2",
          "Microsoft.Extensions.DependencyInjection.Abstractions": "8.0.2",
          "Microsoft.Extensions.Logging": "8.0.1",
          "Microsoft.Extensions.Logging.Abstractions": "8.0.2",
          "Microsoft.Extensions.Options": "8.0.2",
          "Microsoft.Extensions.Options.ConfigurationExtensions": "8.0.0"
        },
        "runtime": {
          "lib/net8.0/Microsoft.Extensions.Logging.Configuration.dll": {
            "assemblyVersion": "8.0.0.0",
            "fileVersion": "8.0.1024.46610"
          }
        }
      },
      "Microsoft.Extensions.Logging.Console/8.0.1": {
        "dependencies": {
          "Microsoft.Extensions.DependencyInjection.Abstractions": "8.0.2",
          "Microsoft.Extensions.Logging": "8.0.1",
          "Microsoft.Extensions.Logging.Abstractions": "8.0.2",
          "Microsoft.Extensions.Logging.Configuration": "8.0.1",
          "Microsoft.Extensions.Options": "8.0.2"
        },
        "runtime": {
          "lib/net8.0/Microsoft.Extensions.Logging.Console.dll": {
            "assemblyVersion": "8.0.0.0",
            "fileVersion": "8.0.1024.46610"
          }
        }
      },
      "Microsoft.Extensions.Logging.Debug/8.0.1": {
        "dependencies": {
          "Microsoft.Extensions.DependencyInjection.Abstractions": "8.0.2",
          "Microsoft.Extensions.Logging": "8.0.1",
          "Microsoft.Extensions.Logging.Abstractions": "8.0.2"
        },
        "runtime": {
          "lib/net8.0/Microsoft.Extensions.Logging.Debug.dll": {
            "assemblyVersion": "8.0.0.0",
            "fileVersion": "8.0.1024.46610"
          }
        }
      },
      "Microsoft.Extensions.Logging.EventLog/8.0.1": {
        "dependencies": {
          "Microsoft.Extensions.DependencyInjection.Abstractions": "8.0.2",
          "Microsoft.Extensions.Logging": "8.0.1",
          "Microsoft.Extensions.Logging.Abstractions": "8.0.2",
          "Microsoft.Extensions.Options": "8.0.2",
          "System.Diagnostics.EventLog": "8.0.1"
        },
        "runtime": {
          "lib/net8.0/Microsoft.Extensions.Logging.EventLog.dll": {
            "assemblyVersion": "8.0.0.0",
            "fileVersion": "8.0.1024.46610"
          }
        }
      },
      "Microsoft.Extensions.Logging.EventSource/8.0.1": {
        "dependencies": {
          "Microsoft.Extensions.DependencyInjection.Abstractions": "8.0.2",
          "Microsoft.Extensions.Logging": "8.0.1",
          "Microsoft.Extensions.Logging.Abstractions": "8.0.2",
          "Microsoft.Extensions.Options": "8.0.2",
          "Microsoft.Extensions.Primitives": "8.0.0"
        },
        "runtime": {
          "lib/net8.0/Microsoft.Extensions.Logging.EventSource.dll": {
            "assemblyVersion": "8.0.0.0",
            "fileVersion": "8.0.1024.46610"
          }
        }
      },
      "Microsoft.Extensions.Options/8.0.2": {
        "dependencies": {
          "Microsoft.Extensions.DependencyInjection.Abstractions": "8.0.2",
          "Microsoft.Extensions.Primitives": "8.0.0"
        },
        "runtime": {
          "lib/net8.0/Microsoft.Extensions.Options.dll": {
            "assemblyVersion": "8.0.0.0",
            "fileVersion": "8.0.224.6711"
          }
        }
      },
      "Microsoft.Extensions.Options.ConfigurationExtensions/8.0.0": {
        "dependencies": {
          "Microsoft.Extensions.Configuration.Abstractions": "8.0.0",
          "Microsoft.Extensions.Configuration.Binder": "8.0.2",
          "Microsoft.Extensions.DependencyInjection.Abstractions": "8.0.2",
          "Microsoft.Extensions.Options": "8.0.2",
          "Microsoft.Extensions.Primitives": "8.0.0"
        },
        "runtime": {
          "lib/net8.0/Microsoft.Extensions.Options.ConfigurationExtensions.dll": {
            "assemblyVersion": "8.0.0.0",
            "fileVersion": "8.0.23.53103"
          }
        }
      },
      "Microsoft.Extensions.Primitives/8.0.0": {
        "runtime": {
          "lib/net8.0/Microsoft.Extensions.Primitives.dll": {
            "assemblyVersion": "8.0.0.0",
            "fileVersion": "8.0.23.53103"
          }
        }
      },
      "Microsoft.Identity.Client/4.61.3": {
        "dependencies": {
          "Microsoft.IdentityModel.Abstractions": "6.35.0",
          "System.Diagnostics.DiagnosticSource": "6.0.1"
        },
        "runtime": {
          "lib/net6.0/Microsoft.Identity.Client.dll": {
            "assemblyVersion": "4.61.3.0",
            "fileVersion": "4.61.3.0"
          }
        }
      },
      "Microsoft.Identity.Client.Extensions.Msal/4.61.3": {
        "dependencies": {
          "Microsoft.Identity.Client": "4.61.3",
          "System.Security.Cryptography.ProtectedData": "6.0.0"
        },
        "runtime": {
          "lib/net6.0/Microsoft.Identity.Client.Extensions.Msal.dll": {
            "assemblyVersion": "4.61.3.0",
            "fileVersion": "4.61.3.0"
          }
        }
      },
      "Microsoft.IdentityModel.Abstractions/6.35.0": {
        "runtime": {
          "lib/net6.0/Microsoft.IdentityModel.Abstractions.dll": {
            "assemblyVersion": "6.35.0.0",
            "fileVersion": "6.35.0.41201"
          }
        }
      },
      "Microsoft.IdentityModel.JsonWebTokens/6.35.0": {
        "dependencies": {
          "Microsoft.IdentityModel.Tokens": "6.35.0",
          "System.Text.Encoding": "4.3.0",
          "System.Text.Encodings.Web": "6.0.0",
          "System.Text.Json": "4.7.2"
        },
        "runtime": {
          "lib/net6.0/Microsoft.IdentityModel.JsonWebTokens.dll": {
            "assemblyVersion": "6.35.0.0",
            "fileVersion": "6.35.0.41201"
          }
        }
      },
      "Microsoft.IdentityModel.Logging/6.35.0": {
        "dependencies": {
          "Microsoft.IdentityModel.Abstractions": "6.35.0"
        },
        "runtime": {
          "lib/net6.0/Microsoft.IdentityModel.Logging.dll": {
            "assemblyVersion": "6.35.0.0",
            "fileVersion": "6.35.0.41201"
          }
        }
      },
      "Microsoft.IdentityModel.Protocols/6.35.0": {
        "dependencies": {
          "Microsoft.IdentityModel.Logging": "6.35.0",
          "Microsoft.IdentityModel.Tokens": "6.35.0"
        },
        "runtime": {
          "lib/net6.0/Microsoft.IdentityModel.Protocols.dll": {
            "assemblyVersion": "6.35.0.0",
            "fileVersion": "6.35.0.41201"
          }
        }
      },
      "Microsoft.IdentityModel.Protocols.OpenIdConnect/6.35.0": {
        "dependencies": {
          "Microsoft.IdentityModel.Protocols": "6.35.0",
          "System.IdentityModel.Tokens.Jwt": "6.35.0"
        },
        "runtime": {
          "lib/net6.0/Microsoft.IdentityModel.Protocols.OpenIdConnect.dll": {
            "assemblyVersion": "6.35.0.0",
            "fileVersion": "6.35.0.41201"
          }
        }
      },
      "Microsoft.IdentityModel.Tokens/6.35.0": {
        "dependencies": {
          "Microsoft.CSharp": "4.5.0",
          "Microsoft.IdentityModel.Logging": "6.35.0",
          "System.Security.Cryptography.Cng": "5.0.0"
        },
        "runtime": {
          "lib/net6.0/Microsoft.IdentityModel.Tokens.dll": {
            "assemblyVersion": "6.35.0.0",
            "fileVersion": "6.35.0.41201"
          }
        }
      },
      "Microsoft.NETCore.Platforms/1.1.0": {},
      "Microsoft.NETCore.Targets/1.1.0": {},
      "Microsoft.SqlServer.Server/1.0.0": {
        "runtime": {
          "lib/netstandard2.0/Microsoft.SqlServer.Server.dll": {
            "assemblyVersion": "1.0.0.0",
            "fileVersion": "1.0.0.0"
          }
        }
      },
      "Microsoft.Win32.SystemEvents/8.0.0": {},
      "Newtonsoft.Json/13.0.3": {
        "runtime": {
          "lib/net6.0/Newtonsoft.Json.dll": {
            "assemblyVersion": "13.0.0.0",
            "fileVersion": "13.0.3.27908"
          }
        }
      },
      "RestSharp/112.1.0": {
        "runtime": {
          "lib/net8.0/RestSharp.dll": {
            "assemblyVersion": "112.1.0.0",
            "fileVersion": "112.1.0.0"
          }
        }
      },
      "System.ClientModel/1.0.0": {
        "dependencies": {
          "System.Memory.Data": "1.0.2",
          "System.Text.Json": "4.7.2"
        },
        "runtime": {
          "lib/net6.0/System.ClientModel.dll": {
            "assemblyVersion": "1.0.0.0",
            "fileVersion": "1.0.24.5302"
          }
        }
      },
      "System.Configuration.ConfigurationManager/6.0.1": {
        "dependencies": {
          "System.Security.Cryptography.ProtectedData": "6.0.0",
          "System.Security.Permissions": "6.0.0"
        }
      },
      "System.Diagnostics.DiagnosticSource/6.0.1": {
        "dependencies": {
          "System.Runtime.CompilerServices.Unsafe": "6.0.0"
        }
      },
      "System.Diagnostics.EventLog/8.0.1": {
        "runtime": {
          "lib/net8.0/System.Diagnostics.EventLog.dll": {
            "assemblyVersion": "8.0.0.0",
            "fileVersion": "8.0.1024.46610"
          }
        },
        "runtimeTargets": {
          "runtimes/win/lib/net8.0/System.Diagnostics.EventLog.dll": {
            "rid": "win",
            "assetType": "runtime",
            "assemblyVersion": "8.0.0.0",
            "fileVersion": "8.0.1024.46610"
          }
        }
      },
      "System.Drawing.Common/8.0.11": {
        "dependencies": {
          "Microsoft.Win32.SystemEvents": "8.0.0"
        },
        "runtime": {
          "lib/net8.0/System.Drawing.Common.dll": {
            "assemblyVersion": "8.0.0.0",
            "fileVersion": "8.0.1124.52103"
          }
        }
      },
      "System.Formats.Asn1/8.0.1": {},
      "System.IdentityModel.Tokens.Jwt/6.35.0": {
        "dependencies": {
          "Microsoft.IdentityModel.JsonWebTokens": "6.35.0",
          "Microsoft.IdentityModel.Tokens": "6.35.0"
        },
        "runtime": {
          "lib/net6.0/System.IdentityModel.Tokens.Jwt.dll": {
            "assemblyVersion": "6.35.0.0",
            "fileVersion": "6.35.0.41201"
          }
        }
      },
      "System.Memory/4.5.4": {},
      "System.Memory.Data/1.0.2": {
        "dependencies": {
          "System.Text.Encodings.Web": "6.0.0",
          "System.Text.Json": "4.7.2"
        },
        "runtime": {
          "lib/netstandard2.0/System.Memory.Data.dll": {
            "assemblyVersion": "1.0.2.0",
            "fileVersion": "1.0.221.20802"
          }
        }
      },
      "System.Numerics.Vectors/4.5.0": {},
      "System.Runtime/4.3.0": {
        "dependencies": {
          "Microsoft.NETCore.Platforms": "1.1.0",
          "Microsoft.NETCore.Targets": "1.1.0"
        }
      },
      "System.Runtime.Caching/6.0.0": {
        "dependencies": {
          "System.Configuration.ConfigurationManager": "6.0.1"
        },
        "runtime": {
          "lib/net6.0/System.Runtime.Caching.dll": {
            "assemblyVersion": "4.0.0.0",
            "fileVersion": "6.0.21.52210"
          }
        },
        "runtimeTargets": {
          "runtimes/win/lib/net6.0/System.Runtime.Caching.dll": {
            "rid": "win",
            "assetType": "runtime",
            "assemblyVersion": "4.0.0.0",
            "fileVersion": "6.0.21.52210"
          }
        }
      },
      "System.Runtime.CompilerServices.Unsafe/6.0.0": {},
      "System.Security.AccessControl/6.0.0": {},
      "System.Security.Cryptography.Cng/5.0.0": {
        "dependencies": {
          "System.Formats.Asn1": "8.0.1"
        }
      },
      "System.Security.Cryptography.ProtectedData/6.0.0": {},
      "System.Security.Permissions/6.0.0": {
        "dependencies": {
          "System.Security.AccessControl": "6.0.0",
          "System.Windows.Extensions": "6.0.0"
        }
      },
      "System.Security.Principal.Windows/5.0.0": {},
      "System.Text.Encoding/4.3.0": {
        "dependencies": {
          "Microsoft.NETCore.Platforms": "1.1.0",
          "Microsoft.NETCore.Targets": "1.1.0",
          "System.Runtime": "4.3.0"
        }
      },
      "System.Text.Encoding.CodePages/6.0.0": {
        "dependencies": {
          "System.Runtime.CompilerServices.Unsafe": "6.0.0"
        }
      },
      "System.Text.Encodings.Web/6.0.0": {
        "dependencies": {
          "System.Runtime.CompilerServices.Unsafe": "6.0.0"
        }
      },
      "System.Text.Json/4.7.2": {},
      "System.Threading.Tasks.Extensions/4.5.4": {},
      "System.Windows.Extensions/6.0.0": {
        "dependencies": {
          "System.Drawing.Common": "8.0.11"
        }
      },
      "POSBackend.DAL/1.0.0": {
        "dependencies": {
          "POSBackend.Model": "1.0.0",
          "System.Drawing.Common": "8.0.11"
        },
        "runtime": {
          "POSBackend.DAL.dll": {
            "assemblyVersion": "1.0.0.0",
            "fileVersion": "1.0.0.0"
          }
        }
      },
      "POSBackend.Model/1.0.0": {
        "dependencies": {
          "Microsoft.EntityFrameworkCore.SqlServer": "8.0.11",
          "System.Drawing.Common": "8.0.11"
        },
        "runtime": {
          "POSBackend.Model.dll": {
            "assemblyVersion": "1.0.0.0",
            "fileVersion": "1.0.0.0"
          }
        }
      }
    }
  },
  "libraries": {
    "Shankro/1.0.0": {
      "type": "project",
      "serviceable": false,
      "sha512": ""
    },
    "AutoMapper/13.0.1": {
      "type": "package",
      "serviceable": true,
      "sha512": "sha512-/Fx1SbJ16qS7dU4i604Sle+U9VLX+WSNVJggk6MupKVkYvvBm4XqYaeFuf67diHefHKHs50uQIS2YEDFhPCakQ==",
      "path": "automapper/13.0.1",
      "hashPath": "automapper.13.0.1.nupkg.sha512"
    },
    "Azure.Core/1.38.0": {
      "type": "package",
      "serviceable": true,
      "sha512": "sha512-IuEgCoVA0ef7E4pQtpC3+TkPbzaoQfa77HlfJDmfuaJUCVJmn7fT0izamZiryW5sYUFKizsftIxMkXKbgIcPMQ==",
      "path": "azure.core/1.38.0",
      "hashPath": "azure.core.1.38.0.nupkg.sha512"
    },
    "Azure.Identity/1.11.4": {
      "type": "package",
      "serviceable": true,
      "sha512": "sha512-Sf4BoE6Q3jTgFkgBkx7qztYOFELBCo+wQgpYDwal/qJ1unBH73ywPztIJKXBXORRzAeNijsuxhk94h0TIMvfYg==",
      "path": "azure.identity/1.11.4",
      "hashPath": "azure.identity.1.11.4.nupkg.sha512"
    },
    "Microsoft.Bcl.AsyncInterfaces/1.1.1": {
      "type": "package",
      "serviceable": true,
      "sha512": "sha512-yuvf07qFWFqtK3P/MRkEKLhn5r2UbSpVueRziSqj0yJQIKFwG1pq9mOayK3zE5qZCTs0CbrwL9M6R8VwqyGy2w==",
      "path": "microsoft.bcl.asyncinterfaces/1.1.1",
      "hashPath": "microsoft.bcl.asyncinterfaces.1.1.1.nupkg.sha512"
    },
    "Microsoft.CSharp/4.5.0": {
      "type": "package",
      "serviceable": true,
      "sha512": "sha512-kaj6Wb4qoMuH3HySFJhxwQfe8R/sJsNJnANrvv8WdFPMoNbKY5htfNscv+LHCu5ipz+49m2e+WQXpLXr9XYemQ==",
      "path": "microsoft.csharp/4.5.0",
      "hashPath": "microsoft.csharp.4.5.0.nupkg.sha512"
    },
    "Microsoft.Data.SqlClient/5.1.6": {
      "type": "package",
      "serviceable": true,
      "sha512": "sha512-+pz7gIPh5ydsBcQvivt4R98PwJXer86fyQBBToIBLxZ5kuhW4N13Ijz87s9WpuPtF1vh4JesYCgpDPAOgkMhdg==",
      "path": "microsoft.data.sqlclient/5.1.6",
      "hashPath": "microsoft.data.sqlclient.5.1.6.nupkg.sha512"
    },
    "Microsoft.Data.SqlClient.SNI.runtime/5.1.1": {
      "type": "package",
      "serviceable": true,
      "sha512": "sha512-wNGM5ZTQCa2blc9ikXQouybGiyMd6IHPVJvAlBEPtr6JepZEOYeDxGyprYvFVeOxlCXs7avridZQ0nYkHzQWCQ==",
      "path": "microsoft.data.sqlclient.sni.runtime/5.1.1",
      "hashPath": "microsoft.data.sqlclient.sni.runtime.5.1.1.nupkg.sha512"
    },
    "Microsoft.EntityFrameworkCore/8.0.11": {
      "type": "package",
      "serviceable": true,
      "sha512": "sha512-stbjWBTtpQ1HtqXMFyKnXFTr76PvaOHI2b2h85JqBi3eZr00nspvR/a90Zwh8CQ4rVawqLiTG0+0yZQWaav+sQ==",
      "path": "microsoft.entityframeworkcore/8.0.11",
      "hashPath": "microsoft.entityframeworkcore.8.0.11.nupkg.sha512"
    },
    "Microsoft.EntityFrameworkCore.Abstractions/8.0.11": {
      "type": "package",
      "serviceable": true,
      "sha512": "sha512-++zY0Ea724ku1jptWJmF7jm3I4IXTexfT4qi1ETcSFFF7qj+qm6rRgN7mTuKkwIETuXk0ikfzudryRjUGrrNKQ==",
      "path": "microsoft.entityframeworkcore.abstractions/8.0.11",
      "hashPath": "microsoft.entityframeworkcore.abstractions.8.0.11.nupkg.sha512"
    },
    "Microsoft.EntityFrameworkCore.Analyzers/8.0.11": {
      "type": "package",
      "serviceable": true,
      "sha512": "sha512-NI/AJQjtC7qgWM8Nr85sRkwlog2AnFer5RKP8xTUH0RuPF3nN0tGXBEeYJOLZWp+/+M/C6O7MMDRhKRE8bZwIA==",
      "path": "microsoft.entityframeworkcore.analyzers/8.0.11",
      "hashPath": "microsoft.entityframeworkcore.analyzers.8.0.11.nupkg.sha512"
    },
    "Microsoft.EntityFrameworkCore.Relational/8.0.11": {
      "type": "package",
      "serviceable": true,
      "sha512": "sha512-3TuuW3i5I4Ro0yoaHmi2MqEDGObOVuhLaMEnd/heaLB1fcvm4fu4PevmC4BOWnI0vo176AIlV5o4rEQciLoohw==",
      "path": "microsoft.entityframeworkcore.relational/8.0.11",
      "hashPath": "microsoft.entityframeworkcore.relational.8.0.11.nupkg.sha512"
    },
    "Microsoft.EntityFrameworkCore.SqlServer/8.0.11": {
      "type": "package",
      "serviceable": true,
      "sha512": "sha512-rYYo8RyteIfRns+GuCcPRf3J7jS8gu8AxUWmFejrGoHTTKINhylL27N+SkFwCjxK4mscokjhQ1zjjJoNQ9oijA==",
      "path": "microsoft.entityframeworkcore.sqlserver/8.0.11",
      "hashPath": "microsoft.entityframeworkcore.sqlserver.8.0.11.nupkg.sha512"
    },
    "Microsoft.Extensions.Caching.Abstractions/8.0.0": {
      "type": "package",
      "serviceable": true,
      "sha512": "sha512-3KuSxeHoNYdxVYfg2IRZCThcrlJ1XJqIXkAWikCsbm5C/bCjv7G0WoKDyuR98Q+T607QT2Zl5GsbGRkENcV2yQ==",
      "path": "microsoft.extensions.caching.abstractions/8.0.0",
      "hashPath": "microsoft.extensions.caching.abstractions.8.0.0.nupkg.sha512"
    },
    "Microsoft.Extensions.Caching.Memory/8.0.1": {
      "type": "package",
      "serviceable": true,
      "sha512": "sha512-HFDnhYLccngrzyGgHkjEDU5FMLn4MpOsr5ElgsBMC4yx6lJh4jeWO7fHS8+TXPq+dgxCmUa/Trl8svObmwW4QA==",
      "path": "microsoft.extensions.caching.memory/8.0.1",
      "hashPath": "microsoft.extensions.caching.memory.8.0.1.nupkg.sha512"
    },
    "Microsoft.Extensions.Configuration/8.0.0": {
      "type": "package",
      "serviceable": true,
      "sha512": "sha512-0J/9YNXTMWSZP2p2+nvl8p71zpSwokZXZuJW+VjdErkegAnFdO1XlqtA62SJtgVYHdKu3uPxJHcMR/r35HwFBA==",
      "path": "microsoft.extensions.configuration/8.0.0",
      "hashPath": "microsoft.extensions.configuration.8.0.0.nupkg.sha512"
    },
    "Microsoft.Extensions.Configuration.Abstractions/8.0.0": {
      "type": "package",
      "serviceable": true,
      "sha512": "sha512-3lE/iLSutpgX1CC0NOW70FJoGARRHbyKmG7dc0klnUZ9Dd9hS6N/POPWhKhMLCEuNN5nXEY5agmlFtH562vqhQ==",
      "path": "microsoft.extensions.configuration.abstractions/8.0.0",
      "hashPath": "microsoft.extensions.configuration.abstractions.8.0.0.nupkg.sha512"
    },
    "Microsoft.Extensions.Configuration.Binder/8.0.2": {
      "type": "package",
      "serviceable": true,
      "sha512": "sha512-7IQhGK+wjyGrNsPBjJcZwWAr+Wf6D4+TwOptUt77bWtgNkiV8tDEbhFS+dDamtQFZ2X7kWG9m71iZQRj2x3zgQ==",
      "path": "microsoft.extensions.configuration.binder/8.0.2",
      "hashPath": "microsoft.extensions.configuration.binder.8.0.2.nupkg.sha512"
    },
    "Microsoft.Extensions.Configuration.CommandLine/8.0.0": {
      "type": "package",
      "serviceable": true,
      "sha512": "sha512-NZuZMz3Q8Z780nKX3ifV1fE7lS+6pynDHK71OfU4OZ1ItgvDOhyOC7E6z+JMZrAj63zRpwbdldYFk499t3+1dQ==",
      "path": "microsoft.extensions.configuration.commandline/8.0.0",
      "hashPath": "microsoft.extensions.configuration.commandline.8.0.0.nupkg.sha512"
    },
    "Microsoft.Extensions.Configuration.EnvironmentVariables/8.0.0": {
      "type": "package",
      "serviceable": true,
      "sha512": "sha512-plvZ0ZIpq+97gdPNNvhwvrEZ92kNml9hd1pe3idMA7svR0PztdzVLkoWLcRFgySYXUJc3kSM3Xw3mNFMo/bxRA==",
      "path": "microsoft.extensions.configuration.environmentvariables/8.0.0",
      "hashPath": "microsoft.extensions.configuration.environmentvariables.8.0.0.nupkg.sha512"
    },
    "Microsoft.Extensions.Configuration.FileExtensions/8.0.1": {
      "type": "package",
      "serviceable": true,
      "sha512": "sha512-EJzSNO9oaAXnTdtdNO6npPRsIIeZCBSNmdQ091VDO7fBiOtJAAeEq6dtrVXIi3ZyjC5XRSAtVvF8SzcneRHqKQ==",
      "path": "microsoft.extensions.configuration.fileextensions/8.0.1",
      "hashPath": "microsoft.extensions.configuration.fileextensions.8.0.1.nupkg.sha512"
    },
    "Microsoft.Extensions.Configuration.Json/8.0.1": {
      "type": "package",
      "serviceable": true,
      "sha512": "sha512-L89DLNuimOghjV3tLx0ArFDwVEJD6+uGB3BMCMX01kaLzXkaXHb2021xOMl2QOxUxbdePKUZsUY7n2UUkycjRg==",
      "path": "microsoft.extensions.configuration.json/8.0.1",
      "hashPath": "microsoft.extensions.configuration.json.8.0.1.nupkg.sha512"
    },
    "Microsoft.Extensions.Configuration.UserSecrets/8.0.1": {
      "type": "package",
      "serviceable": true,
      "sha512": "sha512-7tYqdPPpAK+3jO9d5LTuCK2VxrEdf85Ol4trUr6ds4jclBecadWZ/RyPCbNjfbN5iGTfUnD/h65TOQuqQv2c+A==",
      "path": "microsoft.extensions.configuration.usersecrets/8.0.1",
      "hashPath": "microsoft.extensions.configuration.usersecrets.8.0.1.nupkg.sha512"
    },
    "Microsoft.Extensions.DependencyInjection/8.0.1": {
      "type": "package",
      "serviceable": true,
      "sha512": "sha512-BmANAnR5Xd4Oqw7yQ75xOAYODybZQRzdeNucg7kS5wWKd2PNnMdYtJ2Vciy0QLylRmv42DGl5+AFL9izA6F1Rw==",
      "path": "microsoft.extensions.dependencyinjection/8.0.1",
      "hashPath": "microsoft.extensions.dependencyinjection.8.0.1.nupkg.sha512"
    },
    "Microsoft.Extensions.DependencyInjection.Abstractions/8.0.2": {
      "type": "package",
      "serviceable": true,
      "sha512": "sha512-3iE7UF7MQkCv1cxzCahz+Y/guQbTqieyxyaWKhrRO91itI9cOKO76OHeQDahqG4MmW5umr3CcCvGmK92lWNlbg==",
      "path": "microsoft.extensions.dependencyinjection.abstractions/8.0.2",
      "hashPath": "microsoft.extensions.dependencyinjection.abstractions.8.0.2.nupkg.sha512"
    },
    "Microsoft.Extensions.Diagnostics/8.0.1": {
      "type": "package",
      "serviceable": true,
      "sha512": "sha512-doVPCUUCY7c6LhBsEfiy3W1bvS7Mi6LkfQMS8nlC22jZWNxBv8VO8bdfeyvpYFst6Kxqk7HBC6lytmEoBssvSQ==",
      "path": "microsoft.extensions.diagnostics/8.0.1",
      "hashPath": "microsoft.extensions.diagnostics.8.0.1.nupkg.sha512"
    },
    "Microsoft.Extensions.Diagnostics.Abstractions/8.0.1": {
      "type": "package",
      "serviceable": true,
      "sha512": "sha512-elH2vmwNmsXuKmUeMQ4YW9ldXiF+gSGDgg1vORksob5POnpaI6caj1Hu8zaYbEuibhqCoWg0YRWDazBY3zjBfg==",
      "path": "microsoft.extensions.diagnostics.abstractions/8.0.1",
      "hashPath": "microsoft.extensions.diagnostics.abstractions.8.0.1.nupkg.sha512"
    },
    "Microsoft.Extensions.FileProviders.Abstractions/8.0.0": {
      "type": "package",
      "serviceable": true,
      "sha512": "sha512-ZbaMlhJlpisjuWbvXr4LdAst/1XxH3vZ6A0BsgTphZ2L4PGuxRLz7Jr/S7mkAAnOn78Vu0fKhEgNF5JO3zfjqQ==",
      "path": "microsoft.extensions.fileproviders.abstractions/8.0.0",
      "hashPath": "microsoft.extensions.fileproviders.abstractions.8.0.0.nupkg.sha512"
    },
    "Microsoft.Extensions.FileProviders.Physical/8.0.0": {
      "type": "package",
      "serviceable": true,
      "sha512": "sha512-UboiXxpPUpwulHvIAVE36Knq0VSHaAmfrFkegLyBZeaADuKezJ/AIXYAW8F5GBlGk/VaibN2k/Zn1ca8YAfVdA==",
      "path": "microsoft.extensions.fileproviders.physical/8.0.0",
      "hashPath": "microsoft.extensions.fileproviders.physical.8.0.0.nupkg.sha512"
    },
    "Microsoft.Extensions.FileSystemGlobbing/8.0.0": {
      "type": "package",
      "serviceable": true,
      "sha512": "sha512-OK+670i7esqlQrPjdIKRbsyMCe9g5kSLpRRQGSr4Q58AOYEe/hCnfLZprh7viNisSUUQZmMrbbuDaIrP+V1ebQ==",
      "path": "microsoft.extensions.filesystemglobbing/8.0.0",
      "hashPath": "microsoft.extensions.filesystemglobbing.8.0.0.nupkg.sha512"
    },
    "Microsoft.Extensions.Hosting/8.0.1": {
      "type": "package",
      "serviceable": true,
      "sha512": "sha512-bP9EEkHBEfjgYiG8nUaXqMk/ujwJrffOkNPP7onpRMO8R+OUSESSP4xHkCAXgYZ1COP2Q9lXlU5gkMFh20gRuw==",
      "path": "microsoft.extensions.hosting/8.0.1",
      "hashPath": "microsoft.extensions.hosting.8.0.1.nupkg.sha512"
    },
    "Microsoft.Extensions.Hosting.Abstractions/8.0.1": {
      "type": "package",
      "serviceable": true,
      "sha512": "sha512-nHwq9aPBdBPYXPti6wYEEfgXddfBrYC+CQLn+qISiwQq5tpfaqDZSKOJNxoe9rfQxGf1c+2wC/qWFe1QYJPYqw==",
      "path": "microsoft.extensions.hosting.abstractions/8.0.1",
      "hashPath": "microsoft.extensions.hosting.abstractions.8.0.1.nupkg.sha512"
    },
    "Microsoft.Extensions.Logging/8.0.1": {
      "type": "package",
      "serviceable": true,
      "sha512": "sha512-4x+pzsQEbqxhNf1QYRr5TDkLP9UsLT3A6MdRKDDEgrW7h1ljiEPgTNhKYUhNCCAaVpQECVQ+onA91PTPnIp6Lw==",
      "path": "microsoft.extensions.logging/8.0.1",
      "hashPath": "microsoft.extensions.logging.8.0.1.nupkg.sha512"
    },
    "Microsoft.Extensions.Logging.Abstractions/8.0.2": {
      "type": "package",
      "serviceable": true,
      "sha512": "sha512-nroMDjS7hNBPtkZqVBbSiQaQjWRDxITI8Y7XnDs97rqG3EbzVTNLZQf7bIeUJcaHOV8bca47s1Uxq94+2oGdxA==",
      "path": "microsoft.extensions.logging.abstractions/8.0.2",
      "hashPath": "microsoft.extensions.logging.abstractions.8.0.2.nupkg.sha512"
    },
    "Microsoft.Extensions.Logging.Configuration/8.0.1": {
      "type": "package",
      "serviceable": true,
      "sha512": "sha512-QWwTrsgOnJMmn+XUslm8D2H1n3PkP/u/v52FODtyBc/k4W9r3i2vcXXeeX/upnzllJYRRbrzVzT0OclfNJtBJA==",
      "path": "microsoft.extensions.logging.configuration/8.0.1",
      "hashPath": "microsoft.extensions.logging.configuration.8.0.1.nupkg.sha512"
    },
    "Microsoft.Extensions.Logging.Console/8.0.1": {
      "type": "package",
      "serviceable": true,
      "sha512": "sha512-uzcg/5U2eLyn5LIKlERkdSxw6VPC1yydnOSQiRRWGBGN3kphq3iL4emORzrojScDmxRhv49gp5BI8U3Dz7y4iA==",
      "path": "microsoft.extensions.logging.console/8.0.1",
      "hashPath": "microsoft.extensions.logging.console.8.0.1.nupkg.sha512"
    },
    "Microsoft.Extensions.Logging.Debug/8.0.1": {
      "type": "package",
      "serviceable": true,
      "sha512": "sha512-B8hqNuYudC2RB+L/DI33uO4rf5by41fZVdcVL2oZj0UyoAZqnwTwYHp1KafoH4nkl1/23piNeybFFASaV2HkFg==",
      "path": "microsoft.extensions.logging.debug/8.0.1",
      "hashPath": "microsoft.extensions.logging.debug.8.0.1.nupkg.sha512"
    },
    "Microsoft.Extensions.Logging.EventLog/8.0.1": {
      "type": "package",
      "serviceable": true,
      "sha512": "sha512-ZD1m4GXoxcZeDJIq8qePKj+QAWeQNO/OG8skvrOG8RQfxLp9MAKRoliTc27xanoNUzeqvX5HhS/I7c0BvwAYUg==",
      "path": "microsoft.extensions.logging.eventlog/8.0.1",
      "hashPath": "microsoft.extensions.logging.eventlog.8.0.1.nupkg.sha512"
    },
    "Microsoft.Extensions.Logging.EventSource/8.0.1": {
      "type": "package",
      "serviceable": true,
      "sha512": "sha512-YMXMAla6B6sEf/SnfZYTty633Ool3AH7KOw2LOaaEqwSo2piK4f7HMtzyc3CNiipDnq1fsUSuG5Oc7ZzpVy8WQ==",
      "path": "microsoft.extensions.logging.eventsource/8.0.1",
      "hashPath": "microsoft.extensions.logging.eventsource.8.0.1.nupkg.sha512"
    },
    "Microsoft.Extensions.Options/8.0.2": {
      "type": "package",
      "serviceable": true,
      "sha512": "sha512-dWGKvhFybsaZpGmzkGCbNNwBD1rVlWzrZKANLW/CcbFJpCEceMCGzT7zZwHOGBCbwM0SzBuceMj5HN1LKV1QqA==",
      "path": "microsoft.extensions.options/8.0.2",
      "hashPath": "microsoft.extensions.options.8.0.2.nupkg.sha512"
    },
    "Microsoft.Extensions.Options.ConfigurationExtensions/8.0.0": {
      "type": "package",
      "serviceable": true,
      "sha512": "sha512-0f4DMRqEd50zQh+UyJc+/HiBsZ3vhAQALgdkcQEalSH1L2isdC7Yj54M3cyo5e+BeO5fcBQ7Dxly8XiBBcvRgw==",
      "path": "microsoft.extensions.options.configurationextensions/8.0.0",
      "hashPath": "microsoft.extensions.options.configurationextensions.8.0.0.nupkg.sha512"
    },
    "Microsoft.Extensions.Primitives/8.0.0": {
      "type": "package",
      "serviceable": true,
      "sha512": "sha512-bXJEZrW9ny8vjMF1JV253WeLhpEVzFo1lyaZu1vQ4ZxWUlVvknZ/+ftFgVheLubb4eZPSwwxBeqS1JkCOjxd8g==",
      "path": "microsoft.extensions.primitives/8.0.0",
      "hashPath": "microsoft.extensions.primitives.8.0.0.nupkg.sha512"
    },
    "Microsoft.Identity.Client/4.61.3": {
      "type": "package",
      "serviceable": true,
      "sha512": "sha512-naJo/Qm35Caaoxp5utcw+R8eU8ZtLz2ALh8S+gkekOYQ1oazfCQMWVT4NJ/FnHzdIJlm8dMz0oMpMGCabx5odA==",
      "path": "microsoft.identity.client/4.61.3",
      "hashPath": "microsoft.identity.client.4.61.3.nupkg.sha512"
    },
    "Microsoft.Identity.Client.Extensions.Msal/4.61.3": {
      "type": "package",
      "serviceable": true,
      "sha512": "sha512-PWnJcznrSGr25MN8ajlc2XIDW4zCFu0U6FkpaNLEWLgd1NgFCp5uDY3mqLDgM8zCN8hqj8yo5wHYfLB2HjcdGw==",
      "path": "microsoft.identity.client.extensions.msal/4.61.3",
      "hashPath": "microsoft.identity.client.extensions.msal.4.61.3.nupkg.sha512"
    },
    "Microsoft.IdentityModel.Abstractions/6.35.0": {
      "type": "package",
      "serviceable": true,
      "sha512": "sha512-xuR8E4Rd96M41CnUSCiOJ2DBh+z+zQSmyrYHdYhD6K4fXBcQGVnRCFQ0efROUYpP+p0zC1BLKr0JRpVuujTZSg==",
      "path": "microsoft.identitymodel.abstractions/6.35.0",
      "hashPath": "microsoft.identitymodel.abstractions.6.35.0.nupkg.sha512"
    },
    "Microsoft.IdentityModel.JsonWebTokens/6.35.0": {
      "type": "package",
      "serviceable": true,
      "sha512": "sha512-9wxai3hKgZUb4/NjdRKfQd0QJvtXKDlvmGMYACbEC8DFaicMFCFhQFZq9ZET1kJLwZahf2lfY5Gtcpsx8zYzbg==",
      "path": "microsoft.identitymodel.jsonwebtokens/6.35.0",
      "hashPath": "microsoft.identitymodel.jsonwebtokens.6.35.0.nupkg.sha512"
    },
    "Microsoft.IdentityModel.Logging/6.35.0": {
      "type": "package",
      "serviceable": true,
      "sha512": "sha512-jePrSfGAmqT81JDCNSY+fxVWoGuJKt9e6eJ+vT7+quVS55nWl//jGjUQn4eFtVKt4rt5dXaleZdHRB9J9AJZ7Q==",
      "path": "microsoft.identitymodel.logging/6.35.0",
      "hashPath": "microsoft.identitymodel.logging.6.35.0.nupkg.sha512"
    },
    "Microsoft.IdentityModel.Protocols/6.35.0": {
      "type": "package",
      "serviceable": true,
      "sha512": "sha512-BPQhlDzdFvv1PzaUxNSk+VEPwezlDEVADIKmyxubw7IiELK18uJ06RQ9QKKkds30XI+gDu9n8j24XQ8w7fjWcg==",
      "path": "microsoft.identitymodel.protocols/6.35.0",
      "hashPath": "microsoft.identitymodel.protocols.6.35.0.nupkg.sha512"
    },
    "Microsoft.IdentityModel.Protocols.OpenIdConnect/6.35.0": {
      "type": "package",
      "serviceable": true,
      "sha512": "sha512-LMtVqnECCCdSmyFoCOxIE5tXQqkOLrvGrL7OxHg41DIm1bpWtaCdGyVcTAfOQpJXvzND9zUKIN/lhngPkYR8vg==",
      "path": "microsoft.identitymodel.protocols.openidconnect/6.35.0",
      "hashPath": "microsoft.identitymodel.protocols.openidconnect.6.35.0.nupkg.sha512"
    },
    "Microsoft.IdentityModel.Tokens/6.35.0": {
      "type": "package",
      "serviceable": true,
      "sha512": "sha512-RN7lvp7s3Boucg1NaNAbqDbxtlLj5Qeb+4uSS1TeK5FSBVM40P4DKaTKChT43sHyKfh7V0zkrMph6DdHvyA4bg==",
      "path": "microsoft.identitymodel.tokens/6.35.0",
      "hashPath": "microsoft.identitymodel.tokens.6.35.0.nupkg.sha512"
    },
    "Microsoft.NETCore.Platforms/1.1.0": {
      "type": "package",
      "serviceable": true,
      "sha512": "sha512-kz0PEW2lhqygehI/d6XsPCQzD7ff7gUJaVGPVETX611eadGsA3A877GdSlU0LRVMCTH/+P3o2iDTak+S08V2+A==",
      "path": "microsoft.netcore.platforms/1.1.0",
      "hashPath": "microsoft.netcore.platforms.1.1.0.nupkg.sha512"
    },
    "Microsoft.NETCore.Targets/1.1.0": {
      "type": "package",
      "serviceable": true,
      "sha512": "sha512-aOZA3BWfz9RXjpzt0sRJJMjAscAUm3Hoa4UWAfceV9UTYxgwZ1lZt5nO2myFf+/jetYQo4uTP7zS8sJY67BBxg==",
      "path": "microsoft.netcore.targets/1.1.0",
      "hashPath": "microsoft.netcore.targets.1.1.0.nupkg.sha512"
    },
    "Microsoft.SqlServer.Server/1.0.0": {
      "type": "package",
      "serviceable": true,
      "sha512": "sha512-N4KeF3cpcm1PUHym1RmakkzfkEv3GRMyofVv40uXsQhCQeglr2OHNcUk2WOG51AKpGO8ynGpo9M/kFXSzghwug==",
      "path": "microsoft.sqlserver.server/1.0.0",
      "hashPath": "microsoft.sqlserver.server.1.0.0.nupkg.sha512"
    },
    "Microsoft.Win32.SystemEvents/8.0.0": {
      "type": "package",
      "serviceable": true,
      "sha512": "sha512-9opKRyOKMCi2xJ7Bj7kxtZ1r9vbzosMvRrdEhVhDz8j8MoBGgB+WmC94yH839NPH+BclAjtQ/pyagvi/8gDLkw==",
      "path": "microsoft.win32.systemevents/8.0.0",
      "hashPath": "microsoft.win32.systemevents.8.0.0.nupkg.sha512"
    },
    "Newtonsoft.Json/13.0.3": {
      "type": "package",
      "serviceable": true,
      "sha512": "sha512-HrC5BXdl00IP9zeV+0Z848QWPAoCr9P3bDEZguI+gkLcBKAOxix/tLEAAHC+UvDNPv4a2d18lOReHMOagPa+zQ==",
      "path": "newtonsoft.json/13.0.3",
      "hashPath": "newtonsoft.json.13.0.3.nupkg.sha512"
    },
    "RestSharp/112.1.0": {
      "type": "package",
      "serviceable": true,
      "sha512": "sha512-bOUGNZqhhv/QeCXHTKEUil846yBjwWXpzPKjO67kFvaAOoF361z7jLY5BMnuZ6WD2WQRA750sNMcK7MSPCQ5Mg==",
      "path": "restsharp/112.1.0",
      "hashPath": "restsharp.112.1.0.nupkg.sha512"
    },
    "System.ClientModel/1.0.0": {
      "type": "package",
      "serviceable": true,
      "sha512": "sha512-I3CVkvxeqFYjIVEP59DnjbeoGNfo/+SZrCLpRz2v/g0gpCHaEMPtWSY0s9k/7jR1rAsLNg2z2u1JRB76tPjnIw==",
      "path": "system.clientmodel/1.0.0",
      "hashPath": "system.clientmodel.1.0.0.nupkg.sha512"
    },
    "System.Configuration.ConfigurationManager/6.0.1": {
      "type": "package",
      "serviceable": true,
      "sha512": "sha512-jXw9MlUu/kRfEU0WyTptAVueupqIeE3/rl0EZDMlf8pcvJnitQ8HeVEp69rZdaStXwTV72boi/Bhw8lOeO+U2w==",
      "path": "system.configuration.configurationmanager/6.0.1",
      "hashPath": "system.configuration.configurationmanager.6.0.1.nupkg.sha512"
    },
    "System.Diagnostics.DiagnosticSource/6.0.1": {
      "type": "package",
      "serviceable": true,
      "sha512": "sha512-KiLYDu2k2J82Q9BJpWiuQqCkFjRBWVq4jDzKKWawVi9KWzyD0XG3cmfX0vqTQlL14Wi9EufJrbL0+KCLTbqWiQ==",
      "path": "system.diagnostics.diagnosticsource/6.0.1",
      "hashPath": "system.diagnostics.diagnosticsource.6.0.1.nupkg.sha512"
    },
    "System.Diagnostics.EventLog/8.0.1": {
      "type": "package",
      "serviceable": true,
      "sha512": "sha512-n1ZP7NM2Gkn/MgD8+eOT5MulMj6wfeQMNS2Pizvq5GHCZfjlFMXV2irQlQmJhwA2VABC57M0auudO89Iu2uRLg==",
      "path": "system.diagnostics.eventlog/8.0.1",
      "hashPath": "system.diagnostics.eventlog.8.0.1.nupkg.sha512"
    },
    "System.Drawing.Common/8.0.11": {
      "type": "package",
      "serviceable": true,
      "sha512": "sha512-AVyutHHKrX0Mt9C9T8W3Ccat3cVauUwvN+EqnVpSQi92nwBqoQ+2ZRvGP1S+rKK+6TGXmRflSYNShVjl2mMBlw==",
      "path": "system.drawing.common/8.0.11",
      "hashPath": "system.drawing.common.8.0.11.nupkg.sha512"
    },
    "System.Formats.Asn1/8.0.1": {
      "type": "package",
      "serviceable": true,
      "sha512": "sha512-XqKba7Mm/koKSjKMfW82olQdmfbI5yqeoLV/tidRp7fbh5rmHAQ5raDI/7SU0swTzv+jgqtUGkzmFxuUg0it1A==",
      "path": "system.formats.asn1/8.0.1",
      "hashPath": "system.formats.asn1.8.0.1.nupkg.sha512"
    },
    "System.IdentityModel.Tokens.Jwt/6.35.0": {
      "type": "package",
      "serviceable": true,
      "sha512": "sha512-yxGIQd3BFK7F6S62/7RdZk3C/mfwyVxvh6ngd1VYMBmbJ1YZZA9+Ku6suylVtso0FjI0wbElpJ0d27CdsyLpBQ==",
      "path": "system.identitymodel.tokens.jwt/6.35.0",
      "hashPath": "system.identitymodel.tokens.jwt.6.35.0.nupkg.sha512"
    },
    "System.Memory/4.5.4": {
      "type": "package",
      "serviceable": true,
      "sha512": "sha512-1MbJTHS1lZ4bS4FmsJjnuGJOu88ZzTT2rLvrhW7Ygic+pC0NWA+3hgAen0HRdsocuQXCkUTdFn9yHJJhsijDXw==",
      "path": "system.memory/4.5.4",
      "hashPath": "system.memory.4.5.4.nupkg.sha512"
    },
    "System.Memory.Data/1.0.2": {
      "type": "package",
      "serviceable": true,
      "sha512": "sha512-JGkzeqgBsiZwKJZ1IxPNsDFZDhUvuEdX8L8BDC8N3KOj+6zMcNU28CNN59TpZE/VJYy9cP+5M+sbxtWJx3/xtw==",
      "path": "system.memory.data/1.0.2",
      "hashPath": "system.memory.data.1.0.2.nupkg.sha512"
    },
    "System.Numerics.Vectors/4.5.0": {
      "type": "package",
      "serviceable": true,
      "sha512": "sha512-QQTlPTl06J/iiDbJCiepZ4H//BVraReU4O4EoRw1U02H5TLUIT7xn3GnDp9AXPSlJUDyFs4uWjWafNX6WrAojQ==",
      "path": "system.numerics.vectors/4.5.0",
      "hashPath": "system.numerics.vectors.4.5.0.nupkg.sha512"
    },
    "System.Runtime/4.3.0": {
      "type": "package",
      "serviceable": true,
      "sha512": "sha512-JufQi0vPQ0xGnAczR13AUFglDyVYt4Kqnz1AZaiKZ5+GICq0/1MH/mO/eAJHt/mHW1zjKBJd7kV26SrxddAhiw==",
      "path": "system.runtime/4.3.0",
      "hashPath": "system.runtime.4.3.0.nupkg.sha512"
    },
    "System.Runtime.Caching/6.0.0": {
      "type": "package",
      "serviceable": true,
      "sha512": "sha512-E0e03kUp5X2k+UAoVl6efmI7uU7JRBWi5EIdlQ7cr0NpBGjHG4fWII35PgsBY9T4fJQ8E4QPsL0rKksU9gcL5A==",
      "path": "system.runtime.caching/6.0.0",
      "hashPath": "system.runtime.caching.6.0.0.nupkg.sha512"
    },
    "System.Runtime.CompilerServices.Unsafe/6.0.0": {
      "type": "package",
      "serviceable": true,
      "sha512": "sha512-/iUeP3tq1S0XdNNoMz5C9twLSrM/TH+qElHkXWaPvuNOt+99G75NrV0OS2EqHx5wMN7popYjpc8oTjC1y16DLg==",
      "path": "system.runtime.compilerservices.unsafe/6.0.0",
      "hashPath": "system.runtime.compilerservices.unsafe.6.0.0.nupkg.sha512"
    },
    "System.Security.AccessControl/6.0.0": {
      "type": "package",
      "serviceable": true,
      "sha512": "sha512-AUADIc0LIEQe7MzC+I0cl0rAT8RrTAKFHl53yHjEUzNVIaUlhFY11vc2ebiVJzVBuOzun6F7FBA+8KAbGTTedQ==",
      "path": "system.security.accesscontrol/6.0.0",
      "hashPath": "system.security.accesscontrol.6.0.0.nupkg.sha512"
    },
    "System.Security.Cryptography.Cng/5.0.0": {
      "type": "package",
      "serviceable": true,
      "sha512": "sha512-jIMXsKn94T9JY7PvPq/tMfqa6GAaHpElRDpmG+SuL+D3+sTw2M8VhnibKnN8Tq+4JqbPJ/f+BwtLeDMEnzAvRg==",
      "path": "system.security.cryptography.cng/5.0.0",
      "hashPath": "system.security.cryptography.cng.5.0.0.nupkg.sha512"
    },
    "System.Security.Cryptography.ProtectedData/6.0.0": {
      "type": "package",
      "serviceable": true,
      "sha512": "sha512-rp1gMNEZpvx9vP0JW0oHLxlf8oSiQgtno77Y4PLUBjSiDYoD77Y8uXHr1Ea5XG4/pIKhqAdxZ8v8OTUtqo9PeQ==",
      "path": "system.security.cryptography.protecteddata/6.0.0",
      "hashPath": "system.security.cryptography.protecteddata.6.0.0.nupkg.sha512"
    },
    "System.Security.Permissions/6.0.0": {
      "type": "package",
      "serviceable": true,
      "sha512": "sha512-T/uuc7AklkDoxmcJ7LGkyX1CcSviZuLCa4jg3PekfJ7SU0niF0IVTXwUiNVP9DSpzou2PpxJ+eNY2IfDM90ZCg==",
      "path": "system.security.permissions/6.0.0",
      "hashPath": "system.security.permissions.6.0.0.nupkg.sha512"
    },
    "System.Security.Principal.Windows/5.0.0": {
      "type": "package",
      "serviceable": true,
      "sha512": "sha512-t0MGLukB5WAVU9bO3MGzvlGnyJPgUlcwerXn1kzBRjwLKixT96XV0Uza41W49gVd8zEMFu9vQEFlv0IOrytICA==",
      "path": "system.security.principal.windows/5.0.0",
      "hashPath": "system.security.principal.windows.5.0.0.nupkg.sha512"
    },
    "System.Text.Encoding/4.3.0": {
      "type": "package",
      "serviceable": true,
      "sha512": "sha512-BiIg+KWaSDOITze6jGQynxg64naAPtqGHBwDrLaCtixsa5bKiR8dpPOHA7ge3C0JJQizJE+sfkz1wV+BAKAYZw==",
      "path": "system.text.encoding/4.3.0",
      "hashPath": "system.text.encoding.4.3.0.nupkg.sha512"
    },
    "System.Text.Encoding.CodePages/6.0.0": {
      "type": "package",
      "serviceable": true,
      "sha512": "sha512-ZFCILZuOvtKPauZ/j/swhvw68ZRi9ATCfvGbk1QfydmcXBkIWecWKn/250UH7rahZ5OoDBaiAudJtPvLwzw85A==",
      "path": "system.text.encoding.codepages/6.0.0",
      "hashPath": "system.text.encoding.codepages.6.0.0.nupkg.sha512"
    },
    "System.Text.Encodings.Web/6.0.0": {
      "type": "package",
      "serviceable": true,
      "sha512": "sha512-Vg8eB5Tawm1IFqj4TVK1czJX89rhFxJo9ELqc/Eiq0eXy13RK00eubyU6TJE6y+GQXjyV5gSfiewDUZjQgSE0w==",
      "path": "system.text.encodings.web/6.0.0",
      "hashPath": "system.text.encodings.web.6.0.0.nupkg.sha512"
    },
    "System.Text.Json/4.7.2": {
      "type": "package",
      "serviceable": true,
      "sha512": "sha512-TcMd95wcrubm9nHvJEQs70rC0H/8omiSGGpU4FQ/ZA1URIqD4pjmFJh2Mfv1yH1eHgJDWTi2hMDXwTET+zOOyg==",
      "path": "system.text.json/4.7.2",
      "hashPath": "system.text.json.4.7.2.nupkg.sha512"
    },
    "System.Threading.Tasks.Extensions/4.5.4": {
      "type": "package",
      "serviceable": true,
      "sha512": "sha512-zteT+G8xuGu6mS+mzDzYXbzS7rd3K6Fjb9RiZlYlJPam2/hU7JCBZBVEcywNuR+oZ1ncTvc/cq0faRr3P01OVg==",
      "path": "system.threading.tasks.extensions/4.5.4",
      "hashPath": "system.threading.tasks.extensions.4.5.4.nupkg.sha512"
    },
    "System.Windows.Extensions/6.0.0": {
      "type": "package",
      "serviceable": true,
      "sha512": "sha512-IXoJOXIqc39AIe+CIR7koBtRGMiCt/LPM3lI+PELtDIy9XdyeSrwXFdWV9dzJ2Awl0paLWUaknLxFQ5HpHZUog==",
      "path": "system.windows.extensions/6.0.0",
      "hashPath": "system.windows.extensions.6.0.0.nupkg.sha512"
    },
    "POSBackend.DAL/1.0.0": {
      "type": "project",
      "serviceable": false,
      "sha512": ""
    },
    "POSBackend.Model/1.0.0": {
      "type": "project",
      "serviceable": false,
      "sha512": ""
    }
  }
}